{
  "firstName" : {
    "element" : "input",
    "type" : "text",
    "label" : "First name",
    "required" : true
  },
  "lastName" : {
    "element" : "input",
    "type" : "text",
    "label" : "Last name",
    "required" : true
  },
  "since" : {
    "element" : "input",
    "type" : "date",
    "label" : "Employed at",
    "required" : false
  },
  "role" : {
    "element" : "textarea",
    "type" : "text",
    "label" : "Role in team",
    "required" : false
  },
  "male" : {
    "element" : "input",
    "type" : "checkbox",
    "label" : "Gender is male?",
    "required" : false
  },
  "title" : {
    "element" : "input",
    "type" : "text",
    "label" : "title",
    "required" : false
  }
}